<?xml version="1.0" encoding="UTF-8"?>
<svg width="14px" height="15px" viewBox="0 0 14 15" version="1.1" xmlns="http://www.w3.org/2000/svg" xmlns:xlink="http://www.w3.org/1999/xlink">
    <!-- Generator: Sketch 46.1 (44463) - http://www.bohemiancoding.com/sketch -->
    <title>date_picker_active</title>
    <desc>Created with Sketch.</desc>
    <defs></defs>
    <g id="Page-1" stroke="none" stroke-width="1" fill="none" fill-rule="evenodd">
        <g id="final-step" transform="translate(-187.000000, -138.000000)" fill="#0C7938">
            <g id="date_picker_active" transform="translate(187.000000, 138.000000)">
                <path d="M12.8690172,1.84137931 L11.7310862,1.84137931 L11.7310862,1.06468966 C11.7310862,0.493293103 11.2677931,0.0302068966 10.6966034,0.0302068966 L10.6551724,0.0302068966 C10.0837759,0.0302068966 9.62068966,0.493293103 9.62068966,1.06468966 L9.62068966,1.84137931 L4.28281034,1.84137931 L4.28281034,1.06468966 C4.28281034,0.493293103 3.81951724,0.0302068966 3.24832759,0.0302068966 L3.20689655,0.0302068966 C2.6355,0.0302068966 2.17241379,0.493293103 2.17241379,1.06468966 L2.17241379,1.84137931 L1.03448276,1.84137931 C0.463086207,1.84137931 0,2.30446552 0,2.87586207 L0,13.9654138 C0,14.5368103 0.463086207,14.9998966 1.03448276,14.9998966 L12.8690172,14.9998966 C13.4402069,14.9998966 13.9035,14.5368103 13.9035,13.9654138 L13.9035,2.87586207 C13.9035,2.30446552 13.4402069,1.84137931 12.8690172,1.84137931 Z M1.73803448,13.3655172 L12.1654655,13.3655172 L12.1654655,4.96541379 L1.73803448,4.96541379 L1.73803448,13.3655172 Z" id="Fill-1"></path>
                <path d="M3.15517241,8.76672414 L4.95522414,8.76672414 C5.04651724,8.76672414 5.12068966,8.69260345 5.12068966,8.60125862 L5.12068966,6.80141379 C5.12068966,6.70991379 5.04651724,6.63574138 4.95522414,6.63574138 L3.15517241,6.63574138 C3.06382759,6.63574138 2.9897069,6.70991379 2.9897069,6.80141379 L2.9897069,8.60125862 C2.9897069,8.69260345 3.06382759,8.76672414 3.15517241,8.76672414 Z" id="Fill-2"></path>
                <path d="M6.05172414,8.76672414 L7.85177586,8.76672414 C7.94306897,8.76672414 8.01724138,8.69260345 8.01724138,8.60125862 L8.01724138,6.80141379 C8.01724138,6.70991379 7.94306897,6.63574138 7.85177586,6.63574138 L6.05172414,6.63574138 C5.96037931,6.63574138 5.88625862,6.70991379 5.88625862,6.80141379 L5.88625862,8.60125862 C5.88625862,8.69260345 5.96037931,8.76672414 6.05172414,8.76672414 Z" id="Fill-3"></path>
                <path d="M8.94827586,8.76672414 L10.7483276,8.76672414 C10.8396207,8.76672414 10.9137931,8.69260345 10.9137931,8.60125862 L10.9137931,6.80141379 C10.9137931,6.70991379 10.8396207,6.63574138 10.7483276,6.63574138 L8.94827586,6.63574138 C8.85693103,6.63574138 8.78281034,6.70991379 8.78281034,6.80141379 L8.78281034,8.60125862 C8.78281034,8.69260345 8.85693103,8.76672414 8.94827586,8.76672414 Z" id="Fill-4"></path>
                <path d="M3.15517241,11.6632759 L4.95522414,11.6632759 C5.04651724,11.6632759 5.12068966,11.5891552 5.12068966,11.4978103 L5.12068966,9.69796552 C5.12068966,9.60646552 5.04651724,9.5322931 4.95522414,9.5322931 L3.15517241,9.5322931 C3.06382759,9.5322931 2.9897069,9.60646552 2.9897069,9.69796552 L2.9897069,11.4978103 C2.9897069,11.5891552 3.06382759,11.6632759 3.15517241,11.6632759 Z" id="Fill-5"></path>
                <path d="M6.05172414,11.6632759 L7.85177586,11.6632759 C7.94306897,11.6632759 8.01724138,11.5891552 8.01724138,11.4978103 L8.01724138,9.69796552 C8.01724138,9.60646552 7.94306897,9.5322931 7.85177586,9.5322931 L6.05172414,9.5322931 C5.96037931,9.5322931 5.88625862,9.60646552 5.88625862,9.69796552 L5.88625862,11.4978103 C5.88625862,11.5891552 5.96037931,11.6632759 6.05172414,11.6632759 Z" id="Fill-6"></path>
                <path d="M8.94827586,11.6632759 L10.7483276,11.6632759 C10.8396207,11.6632759 10.9137931,11.5891552 10.9137931,11.4978103 L10.9137931,9.69796552 C10.9137931,9.60646552 10.8396207,9.5322931 10.7483276,9.5322931 L8.94827586,9.5322931 C8.85693103,9.5322931 8.78281034,9.60646552 8.78281034,9.69796552 L8.78281034,11.4978103 C8.78281034,11.5891552 8.85693103,11.6632759 8.94827586,11.6632759 Z" id="Fill-7"></path>
            </g>
        </g>
    </g>
</svg>