<?xml version="1.0" encoding="UTF-8"?>
<svg width="16px" height="30px" viewBox="0 0 16 30" version="1.1" xmlns="http://www.w3.org/2000/svg" xmlns:xlink="http://www.w3.org/1999/xlink">
    <!-- Generator: Sketch 46.2 (44496) - http://www.bohemiancoding.com/sketch -->
    <title>buy_online</title>
    <desc>Created with Sketch.</desc>
    <defs>
        <polygon id="path-1" points="1.61150497e-18 0 0 29.7710235 15.5327079 29.7710235 15.5327079 8.73787031e-15 5.37168322e-19 8.73787031e-15"></polygon>
    </defs>
    <g id="Page-1" stroke="none" stroke-width="1" fill="none" fill-rule="evenodd">
        <g id="v_1.2-copy" transform="translate(-960.000000, -719.000000)">
            <g id="buy_online" transform="translate(959.950947, 719.148002)">
                <mask id="mask-2" fill="white">
                    <use xlink:href="#path-1"></use>
                </mask>
                <g id="Clip-2"></g>
                <path d="M11.9354482,13.5238746 C10.7590991,12.8781042 9.50845418,12.3862827 8.27019193,11.8759382 C7.55192243,11.5807992 6.86476427,11.2363934 6.25801577,10.7569462 C5.0630153,9.81004189 5.29217121,8.27285949 6.69125277,7.66398154 C7.08757409,7.49197083 7.50231455,7.43640168 7.9234785,7.41203734 C9.54567944,7.32587827 11.0871612,7.62101729 12.5545793,8.32204932 C13.2852315,8.67245005 13.5264604,8.5616192 13.7740355,7.80540232 C14.0343801,7.00614433 14.2508438,6.1943583 14.4923824,5.3891053 C14.6535112,4.84778652 14.4551571,4.49139078 13.9412783,4.26388778 C13.0001216,3.8519229 12.0345866,3.55678388 11.0191341,3.39676319 C9.69411613,3.19385511 9.69411613,3.1878601 9.6880796,1.86588324 C9.68173351,0.0026644495 9.68173351,0.0026644495 7.79949749,0.0026644495 C7.52715719,0.0026644495 7.25473949,-0.00333056187 6.98239919,0.0026644495 C6.10323298,0.0272593679 5.95448673,0.180977608 5.92972149,1.06039966 C5.91733886,1.45368778 5.92972149,1.84728333 5.92368496,2.2468739 C5.91733886,3.4153631 5.91130234,3.39676319 4.78456108,3.80273306 C2.06015194,4.7865298 0.376270059,6.63114868 0.196722032,9.58246203 C0.0355931559,12.1956721 1.41021904,13.9604344 3.57083189,15.2453651 C4.90219599,16.0386281 6.37565068,16.5057778 7.78711487,17.1269533 C8.33821896,17.3668306 8.86455781,17.6433697 9.32256006,18.0246678 C10.6783798,19.1375878 10.4308048,20.9882017 8.82098646,21.6892338 C7.96062637,22.0642294 7.05042622,22.1566909 6.11561561,22.0396345 C4.67304008,21.8615519 3.29237767,21.4863257 1.99212491,20.816191 C1.23059362,20.4225955 1.00778381,20.527047 0.747826126,21.3449049 C0.524706746,22.051932 0.326739568,22.7652614 0.128694999,23.4786678 C-0.137608777,24.4378696 -0.0384704052,24.665142 0.883880191,25.1139993 C2.06015194,25.679913 3.31714291,25.9687496 4.59866695,26.1717345 C5.60173677,26.3314478 5.63253855,26.3746426 5.64492117,27.4074754 C5.65126726,27.8749326 5.65126726,28.3483848 5.65738118,28.8155345 C5.66372728,29.4058126 5.9484502,29.7501414 6.56123524,29.7624389 C7.25473949,29.7747363 7.95428027,29.7747363 8.64778453,29.7564439 C9.21738516,29.7441464 9.50845418,29.4367099 9.50845418,28.8648012 C9.50845418,28.2252565 9.53933335,27.5797936 9.51449071,26.9403257 C9.48368894,26.2884835 9.76848926,25.9564521 10.400003,25.7844414 C11.8550385,25.390769 13.0933008,24.6161828 14.0467627,23.459991 C16.6964892,20.2628822 15.6873828,15.5834684 11.9354482,13.5238746 Z" id="Fill-1" fill="#16783B" mask="url(#mask-2)"></path>
            </g>
        </g>
    </g>
</svg>