<?xml version="1.0" encoding="UTF-8"?>
<svg width="31px" height="30px" viewBox="0 0 31 30" version="1.1" xmlns="http://www.w3.org/2000/svg" xmlns:xlink="http://www.w3.org/1999/xlink">
    <!-- Generator: Sketch 46.2 (44496) - http://www.bohemiancoding.com/sketch -->
    <title>exclusive_price</title>
    <desc>Created with Sketch.</desc>
    <defs>
        <polygon id="path-1" points="1.59177099e-21 0.0442574877 1.59177099e-21 29.8954714 29.9542565 29.8954714 29.9542565 0.0442574877 0 0.0442574877"></polygon>
    </defs>
    <g id="Page-1" stroke="none" stroke-width="1" fill="none" fill-rule="evenodd">
        <g id="v_1.2-copy" transform="translate(-952.000000, -151.000000)">
            <g id="exclusive_price" transform="translate(952.215233, 151.000000)">
                <path d="M12.1926889,12.4344391 C12.1926889,13.123487 11.6203846,13.6823253 10.9148114,13.6823253 C10.20916,13.6823253 9.63685571,13.123487 9.63685571,12.4344391 C9.63685571,11.7454677 10.20916,11.1866294 10.9148114,11.1866294 C11.6203846,11.1866294 12.1926889,11.7454677 12.1926889,12.4344391 Z" id="Fill-1" fill="#FFFFFF"></path>
                <g id="Group-5">
                    <mask id="mask-2" fill="white">
                        <use xlink:href="#path-1"></use>
                    </mask>
                    <g id="Clip-3"></g>
                    <path d="M20.3109689,17.4990021 C20.3109689,18.1882793 19.7389778,18.7468118 19.0330132,18.7468118 C18.3273618,18.7468118 17.7551358,18.1882793 17.7551358,17.4990021 C17.7551358,16.8099542 18.3273618,16.2511159 19.0330132,16.2511159 C19.7389778,16.2511159 20.3109689,16.8099542 20.3109689,17.4990021 Z" id="Fill-2" fill="#FFFFFF" mask="url(#mask-2)"></path>
                    <path d="M29.5694727,16.6181952 L29.1057723,16.00056 C28.6047222,15.3276449 28.592194,14.4161016 29.0871366,13.731259 L29.5379173,13.1073541 C30.2270471,12.1531467 29.9074212,10.8258197 28.8488657,10.2691222 L28.1600491,9.90831255 C27.4081999,9.51676637 26.9946906,8.69727958 27.138765,7.87144669 L27.270233,7.11909083 C27.4709192,5.96922501 26.5876021,4.90476381 25.3910015,4.85575363 L24.6079883,4.82532298 C23.7562267,4.78854623 23.0169057,4.22588498 22.778948,3.42459541 L22.559626,2.69043678 C22.227785,1.56503781 20.9624358,0.983873492 19.86011,1.4488967 L19.139503,1.74846278 C18.3564899,2.07876535 17.4419305,1.88310695 16.8721319,1.25920209 L16.3521329,0.690271207 C15.5565915,-0.178225762 14.1596961,-0.17195613 13.3702623,0.714738064 L12.856684,1.28970921 C12.2929928,1.9198837 11.3846193,2.12777552 10.5954204,1.80970638 L9.8687059,1.51610409 C8.75995932,1.06958395 7.50713832,1.67529158 7.18751236,2.80061409 L6.9810318,3.54073652 C6.75528912,4.34806635 6.02888784,4.92326687 5.17673466,4.96600741 L4.39372154,5.00867149 C3.19751239,5.07618472 2.332831,6.15257352 2.55215297,7.30243935 L2.69622739,8.0547952 C2.85283001,8.87466429 2.4520839,9.70019134 1.7064205,10.1039709 L1.02371136,10.4770141 C-0.022315874,11.0459449 -0.322992913,12.3795416 0.384772649,13.3215156 L0.848473021,13.9391508 C1.34944482,14.6120658 1.36205133,15.5233033 0.867108733,16.2084518 L0.416249776,16.8323567 C-0.272801772,17.7865641 0.0465109795,19.1138911 1.10506642,19.6705885 L1.79419627,20.0313982 C2.54604547,20.4229444 2.9592415,21.2425077 2.81516708,22.0682641 L2.68362088,22.8206199 C2.48332612,23.9704858 3.36664323,25.034947 4.56285237,25.0839571 L5.3458655,25.1143878 C6.19801868,25.1511645 6.93702647,25.7138258 7.17529736,26.5151918 L7.39430613,27.249274 C7.7264603,28.374673 8.9918095,28.9556079 10.0941354,28.4908141 L10.8144292,28.1910186 C11.5974423,27.8609454 12.5120016,28.0566038 13.0821135,28.6805087 L13.6021125,29.2491337 C14.4037613,30.118013 15.8006567,30.1117434 16.5836698,29.2249727 L17.0974831,28.6497722 C17.6612525,28.0198271 18.569626,27.8120117 19.3587467,28.1300809 L20.0855394,28.4236831 C21.194286,28.8701268 22.447107,28.2644956 22.7664198,27.1390967 L22.9732135,26.3989743 C23.1985647,25.591415 23.9253575,25.0164439 24.7771975,24.9737034 L25.5602106,24.9310393 C26.7567329,24.863526 27.6211011,23.7871373 27.4017792,22.6372714 L27.2577047,21.8849156 C27.1011021,21.0650465 27.5020831,20.2392901 28.2475116,19.8357398 L28.930534,19.4623909 C29.9765612,18.8997296 30.2772383,17.5665153 29.5694727,16.6181952 Z M7.82645107,12.4344391 C7.82645107,10.7706163 9.20471077,9.42509212 10.9086256,9.42509212 C12.6123056,9.42509212 13.9905653,10.7706163 13.9905653,12.4344391 C13.9905653,14.0983383 12.6123056,15.4438625 10.9086256,15.4438625 C9.20471077,15.4438625 7.82645107,14.0920687 7.82645107,12.4344391 Z M11.503559,20.1965495 C11.2405449,20.5086549 10.7646295,20.5513954 10.4450036,20.2944934 C10.1256125,20.0376679 10.0816072,19.5726447 10.3446213,19.2608451 L18.4317374,9.74912506 C18.6947515,9.43732555 19.1709801,9.39435563 19.4902929,9.65148701 C19.8099188,9.90831255 19.8536893,10.3731064 19.5905968,10.6852117 L11.503559,20.1965495 Z M19.0330132,20.5086549 C17.3293332,20.5086549 15.9511518,19.1628248 15.9511518,17.4990021 C15.9511518,15.8354087 17.3293332,14.4895786 19.0330132,14.4895786 C20.7370064,14.4895786 22.1149528,15.8354087 22.1149528,17.4990021 C22.1149528,19.1628248 20.7370064,20.5086549 19.0330132,20.5086549 Z" id="Fill-4" fill="#FFFFFF" mask="url(#mask-2)"></path>
                </g>
            </g>
        </g>
    </g>
</svg>