<?xml version="1.0" encoding="UTF-8"?>
<svg width="21px" height="21px" viewBox="0 0 21 21" version="1.1" xmlns="http://www.w3.org/2000/svg" xmlns:xlink="http://www.w3.org/1999/xlink">
    <!-- Generator: Sketch 46.2 (44496) - http://www.bohemiancoding.com/sketch -->
    <title>footer_gplus@2x</title>
    <desc>Created with Sketch.</desc>
    <defs></defs>
    <g id="Page-1" stroke="none" stroke-width="1" fill="none" fill-rule="evenodd">
        <g id="v_1.2-copy" transform="translate(-895.000000, -2611.000000)" fill="#FFFFFF">
            <path d="M900.074419,2631.99416 L910.074419,2631.99416 L910.074419,2631.99416 C912.835842,2631.99416 915.074419,2629.75558 915.074419,2626.99416 L915.074419,2616.99416 L915.074419,2616.99416 C915.074419,2614.23274 912.835842,2611.99416 910.074419,2611.99416 L900.074419,2611.99416 L900.074419,2611.99416 C897.312995,2611.99416 895.074419,2614.23274 895.074419,2616.99416 L895.074419,2626.99416 L895.074419,2626.99416 C895.074419,2629.75558 897.312995,2631.99416 900.074419,2631.99416 Z M906.733396,2622.83544 C906.391419,2625.08221 904.716369,2626.37003 902.547772,2626.37003 C900.110761,2626.37003 898.135041,2624.39436 898.135041,2621.9573 C898.135041,2619.52089 900.110761,2617.54517 902.547772,2617.54517 C903.726808,2617.54517 904.759651,2617.96581 905.511572,2618.69612 L904.245149,2619.96254 C903.816115,2619.53054 903.229202,2619.3002 902.547772,2619.3002 C901.113378,2619.3002 899.95025,2620.52328 899.95025,2621.9573 C899.95025,2623.39257 901.113378,2624.58033 902.547772,2624.58033 C903.750122,2624.58033 904.660634,2623.99901 904.923343,2622.83544 L902.547772,2622.83544 L902.547772,2621.06329 L906.722699,2621.06329 C906.772838,2621.34893 906.798127,2621.64768 906.798127,2621.9573 C906.798127,2622.26438 906.775855,2622.55688 906.733396,2622.83544 Z M912.032667,2622.286 L910.486365,2622.286 L910.486365,2623.83164 L909.388188,2623.83164 L909.388188,2622.286 L907.841886,2622.286 L907.841886,2621.18716 L909.388188,2621.18716 L909.388188,2619.64091 L910.486365,2619.64091 L910.486365,2621.18716 L912.032667,2621.18716 L912.032667,2622.286 Z" id="footer_gplus"></path>
        </g>
    </g>
</svg>