<?xml version="1.0" encoding="UTF-8"?>
<svg width="23px" height="25px" viewBox="0 0 23 25" version="1.1" xmlns="http://www.w3.org/2000/svg" xmlns:xlink="http://www.w3.org/1999/xlink">
    <!-- Generator: Sketch 46.1 (44463) - http://www.bohemiancoding.com/sketch -->
    <title>insurance</title>
    <desc>Created with Sketch.</desc>
    <defs></defs>
    <g id="Page-1" stroke="none" stroke-width="1" fill="none" fill-rule="evenodd">
        <g id="Tabs-" transform="translate(-33.000000, -380.000000)" fill="#167609">
            <path d="M53.4234547,390.106429 C52.6952813,395.238435 49.7029325,399.760569 45.3224717,402.44726 L45.3224717,381.885361 L54.2600999,384.211844 L53.4234547,390.106429 Z M55.3846702,382.80489 L44.7072517,380.025534 C44.5749748,379.991513 44.4234708,379.991465 44.2928323,380.025534 C43.8464159,380.141716 33.9830905,382.709092 33.6153656,382.804746 C33.2107285,382.910085 32.9494515,383.30229 33.0082412,383.716276 L33.9480094,390.337492 C34.8131339,396.434228 38.6035291,401.767805 44.1197881,404.579062 C44.1201255,404.579206 44.120511,404.579399 44.1208483,404.579592 C44.346996,404.696593 44.619308,404.709989 44.8792357,404.579592 C44.879573,404.579447 44.8799103,404.579255 44.8802477,404.57911 C50.3821466,401.77484 54.1844443,396.451575 55.0519782,390.33754 L55.9917464,383.71642 C56.0505843,383.302386 55.7893073,382.910182 55.3846702,382.80489 L55.3846702,382.80489 Z" id="insurance"></path>
        </g>
    </g>
</svg>