<?xml version="1.0" encoding="UTF-8"?>
<svg width="49px" height="31px" viewBox="0 0 49 31" version="1.1" xmlns="http://www.w3.org/2000/svg" xmlns:xlink="http://www.w3.org/1999/xlink">
    <!-- Generator: Sketch 46.2 (44496) - http://www.bohemiancoding.com/sketch -->
    <title>thumbnails_up</title>
    <desc>Created with Sketch.</desc>
    <defs></defs>
    <g id="Detail-Page" stroke="none" stroke-width="1" fill="none" fill-rule="evenodd">
        <g id="thumbnails_up" transform="translate(-0.843755, 0.008868)">
            <path d="M17.2139444,0.5 L33.3225386,0.5 L33.3225386,0.5 C36.7709589,0.5 39.8420929,2.68118385 40.9780764,5.93712373 L49.5479588,30.5 L0.98852418,30.5 L9.55840655,5.93712373 L9.55840655,5.93712373 C10.69439,2.68118385 13.765524,0.5 17.2139444,0.5 Z" id="Rectangle-20" fill="#000000" opacity="0.453068388"></path>
            <path d="M26.5341662,12.3771779 L25.2682415,11.1231602 L15.5010846,20.79845 L18.0329339,23.3064855 L25.2682415,16.1392312 L32.503549,23.3064855 L35.0353984,20.79845 L26.5341662,12.3771779 Z" id="Combined-Shape-Copy-4" fill="#FFFFFF" transform="translate(25.268241, 17.214823) rotate(-360.000000) translate(-25.268241, -17.214823) "></path>
        </g>
    </g>
</svg>