<?xml version="1.0" encoding="UTF-8"?>
<svg width="25px" height="24px" viewBox="0 0 25 24" version="1.1" xmlns="http://www.w3.org/2000/svg" xmlns:xlink="http://www.w3.org/1999/xlink">
    <!-- Generator: Sketch 46.1 (44463) - http://www.bohemiancoding.com/sketch -->
    <title>trade_value</title>
    <desc>Created with Sketch.</desc>
    <defs></defs>
    <g id="Page-1" stroke="none" stroke-width="1" fill="none" fill-rule="evenodd">
        <g id="Tabs-" transform="translate(-31.000000, -201.000000)" fill="#167609">
            <path d="M54.9075646,210.721679 C54.5717162,210.30642 54.2543548,209.91469 54.1355894,209.54817 C54.0075804,209.154199 54.03279,208.63292 54.0591201,208.080828 C54.0995956,207.226362 54.1421719,206.342203 53.6344777,205.644737 C53.1213214,204.940127 52.2241382,204.696574 51.4331157,204.482152 C50.9034331,204.338877 50.404002,204.203165 50.0762767,203.964654 C49.7551338,203.731045 49.4761471,203.3015 49.1802139,202.846886 C48.7299417,202.154882 48.2194464,201.370302 47.379125,201.097337 C47.1799688,201.032773 46.9644264,201 46.73852,201 C46.1383904,201 45.5392413,201.227027 44.9599797,201.445791 C44.435339,201.644947 43.9396894,201.832618 43.5118258,201.832618 C43.0839621,201.832618 42.5883125,201.644947 42.0636719,201.445791 C41.4842702,201.227027 40.8858213,201 40.2851316,201 C40.0597854,201 39.8441029,201.032773 39.6450867,201.097337 C38.8042051,201.370302 38.2937098,202.154882 37.8434376,202.847447 C37.5480646,203.3015 37.2685177,203.731045 36.9479351,203.964654 C36.6196495,204.203165 36.1202185,204.338877 35.5910961,204.482152 C34.7995133,204.696574 33.9023301,204.940127 33.389594,205.644737 C32.8820399,206.342203 32.924056,207.226362 32.9650916,208.080828 C32.9914217,208.63292 33.0160711,209.154199 32.8879221,209.54817 C32.7692968,209.91469 32.4519354,210.30642 32.1160869,210.721679 C31.5929868,211.367746 31,212.100366 31,212.99965 C31,213.899634 31.5929868,214.632254 32.1160869,215.278321 C32.4519354,215.69358 32.7692968,216.08531 32.8879221,216.45183 C33.0160711,216.845661 32.9914217,217.36708 32.9650916,217.919032 C32.924056,218.773638 32.8814797,219.657797 33.389594,220.355263 C33.9023301,221.059873 34.7995133,221.303426 35.5905359,221.517848 C36.1202185,221.661123 36.6196495,221.796835 36.9473749,222.035346 C37.2685177,222.268955 37.5480646,222.69836 37.8434376,223.152553 C38.2937098,223.845118 38.8042051,224.629698 39.6445265,224.902663 C39.8441029,224.967227 40.0597854,225 40.2851316,225 C40.8858213,225 41.4842702,224.772973 42.0636719,224.554069 C42.5883125,224.355053 43.0839621,224.167382 43.5118258,224.167382 C43.9396894,224.167382 44.435339,224.355053 44.9605399,224.554069 C45.5392413,224.772973 46.1383904,225 46.73852,225 C46.9644264,225 47.1799688,224.967227 47.379125,224.902663 C48.2194464,224.629698 48.7299417,223.845118 49.1802139,223.153114 C49.4761471,222.69836 49.7551338,222.268955 50.0762767,222.035346 C50.404002,221.796835 50.9034331,221.661123 51.4331157,221.517848 C52.2241382,221.303426 53.1213214,221.060433 53.6339175,220.355263 C54.1421719,219.657797 54.0995956,218.774199 54.0591201,217.919032 C54.03279,217.36708 54.0075804,216.845661 54.1355894,216.45183 C54.2543548,216.08531 54.5717162,215.69358 54.9075646,215.278882 C55.4306647,214.632254 56.0236515,213.899634 56.0236515,212.99965 C56.0236515,212.100366 55.4306647,211.367746 54.9075646,210.721679 Z" id="trade_value"></path>
        </g>
    </g>
</svg>